analytics_project
…
##Base on the model, Marketing team should focus on Corps members or alum, Former Temp Employees Former independent Contractors and Former Employees are the important groups to target,Donors who have donated more than 3 years should be the priority as well.

###What campaign should we consider? - #FY20 National EOCY - Direct Mail V1 - Renew Handwritten,FY20 National EOCY - Direct Mail V1 - Renew Standard are top choices as both of them have shown high success rate and sufficient sample size

campaign = mail %>%
  group_by(Campaign_Name) %>%
  summarize(mean(Gift90),length(Campaign_Name))
campaign = campaign %>%
  arrange(desc(`mean(Gift90)`))
head(campaign,27)

## # A tibble: 27 x 3
##    Campaign_Name                              `mean(Gift90)` `length(Campaign_N
##    <chr>                                               <dbl>               <int>
##  1 National FY19 Annual Giving - EOCY Campai         0.268                  157
##  2 FY20 National EOCY - Direct Mail V1 - Ren         0.174                 1033
##  3 FY19 March Stewardship - direct mail list          0.173                  225
##  4 National FY19 Annual Giving - EOCY Campai         0.167                   54
##  5 FY20 National EOCY - Direct Mail V1 - Ren         0.122                 1868
##  6 National FY19 Annual Giving - Spring Camp         0.0887                 248
##  7 National FY19 Annual Giving - EOCY Campai         0.0776                 335
##  8 National FY19 Annual Giving - EOCY Campai         0.0752                1397
##  9 National FY18 CSS - Spring Campaign Recip         0.0733                 150
## 10 National FY19 Annual Giving - EOCY Campai         0.0580                 448
## #  with 17 more rows
…
